…
Create a city\_state variable (e.g. "Baltimore, MD") and then summarize within cities to obtain the total number of homicides and the number of unsolved homicides (those for which the disposition is "Closed without arrest" or "Open/No arrest").

``` r
summarize_homicides = 
  homicides_data %>% 
  mutate(city_state = str_c(city, state, sep = ", ")) %>% 
  select(-city, -state) %>% 
  group_by(city_state) %>% 
  summarize(n_homicides = n(),
            n_unsolved_homicides = sum(disposition %in% c("Closed without arrest", "Open/No arrest")))

summarize_homicides
```

    ## # A tibble: 51 x 3
    ##    city_state      n_homicides n_unsolved_homicides
    ##    <chr>                 <int>                <int>
    ##  1 Albuquerque, NM         378                  146
    ##  2 Atlanta, GA             973                  373
    ##  3 Baltimore, MD          2827                 1825
    ##  4 Baton Rouge, LA         424                  196
    ##  5 Birmingham, AL          800                  347
    ##  6 Boston, MA              614                  310
    ##  7 Buffalo, NY             521                  319
    ##  8 Charlotte, NC           687                  206
    ##  9 Chicago, IL            5535                 4073
    ## 10 Cincinnati, OH          694                  309
    ## # ... with 41 more rows
…
